<svg width="59" height="58" viewBox="0 0 59 58" fill="none" xmlns="http://www.w3.org/2000/svg">
<path fill-rule="evenodd" clip-rule="evenodd" d="M8.50729 0.133516C7.35216 0.496016 6.51569 1.23166 5.99414 2.34352L5.6995 2.97178L5.66937 16.1054C5.63606 30.5663 5.60298 29.8303 6.33727 30.939C6.80932 31.6516 7.56071 32.1978 8.45846 32.481C9.08717 32.6793 9.49148 32.7081 11.6469 32.7081H14.1153L14.1692 37.5509C14.2286 42.8837 14.2801 43.3299 15.027 44.9769C15.9435 46.9984 17.6688 48.829 19.487 49.7092L20.0205 49.9675L20.0534 53.4306C20.0854 56.8051 20.0927 56.9027 20.3388 57.2479C20.8757 58.0004 20.4769 57.97 29.7889 57.968L38.2112 57.9661L38.6526 57.7131C39.4905 57.2327 39.5139 57.1123 39.5139 53.2988C39.5139 50.5757 39.5428 49.9268 39.6639 49.9268C39.9955 49.9268 41.8906 48.5396 42.6473 47.7429C43.8814 46.4438 44.5981 45.1264 45.0958 43.2433C45.2979 42.4785 45.3256 41.9106 45.3742 37.5582L45.4281 32.7227L48.1068 32.6848C50.5898 32.6495 50.8331 32.6277 51.4382 32.3856C52.2725 32.0518 53.1348 31.2198 53.5377 30.3598L53.844 29.7061V16.3366V2.96702L53.4747 2.21698C53.045 1.34393 52.4308 0.744895 51.5353 0.324962L50.8987 0.0264655L29.9417 0.00505536C12.8346 -0.0122767 8.89698 0.0112858 8.50729 0.133516ZM50.3243 3.54623C50.4702 3.69225 50.5022 4.02903 50.5022 5.41537V7.10654H29.7718H9.0413V5.41537C9.0413 4.02903 9.07335 3.69225 9.21926 3.54623C9.37978 3.38582 11.4006 3.36826 29.7718 3.36826C48.1429 3.36826 50.1637 3.38582 50.3243 3.54623ZM50.5022 19.7001C50.5022 28.0974 50.4859 28.9133 50.3147 29.1025C50.1446 29.2905 49.9101 29.3097 47.7796 29.3097H45.4319L45.3769 26.1095C45.3279 23.2504 45.2964 22.83 45.0817 22.1648C44.1437 19.258 41.1681 17.3867 38.214 17.8459C36.0626 18.1805 34.1465 19.69 33.3468 21.6804C32.9535 22.6591 32.8304 23.877 32.8304 26.7862V29.3097H21.143C10.4267 29.3097 9.43846 29.294 9.24849 29.1222C9.05104 28.9435 9.0413 28.5032 9.0413 19.7198V10.505H29.7718H50.5022V19.7001ZM14.0823 14.6644C13.6874 14.7604 13.1012 15.2786 12.9334 15.6805C12.801 15.9972 12.7773 16.8014 12.8038 20.0753C12.8351 23.9458 12.8444 24.0934 13.0747 24.4021C13.2057 24.5779 13.4861 24.8237 13.6977 24.9483C14.0659 25.1652 14.286 25.1749 18.8401 25.1749C23.3943 25.1749 23.6144 25.1652 23.9825 24.9483C24.1941 24.8237 24.4745 24.5779 24.6056 24.402C24.8379 24.0903 24.844 23.9743 24.844 19.9073C24.844 15.872 24.8362 15.7218 24.6108 15.4127C24.4825 15.2367 24.1531 14.9782 23.8789 14.838C23.3847 14.5855 23.3374 14.5832 18.8444 14.5962C16.3499 14.6035 14.2069 14.6342 14.0823 14.6644ZM21.4766 19.879L21.4456 21.7765H18.8401H16.2347L16.2036 19.879L16.1726 17.9815H18.8401H21.5077L21.4766 19.879ZM40.3825 21.474C40.633 21.6019 41.0054 21.8969 41.2098 22.1297C41.9954 23.0245 41.9495 22.3759 41.9495 32.5948C41.9495 42.7594 41.9728 42.3915 41.2317 43.9229C40.7017 45.0185 39.6553 46.0847 38.5345 46.6711L37.725 47.0948H29.7718H21.8185L21.009 46.6711C19.947 46.1154 18.8246 45.0007 18.3439 44.0244C17.6339 42.5821 17.6238 42.4956 17.5676 37.3809L17.5162 32.7081H23.9304H30.3445L29.7684 33.4597C28.4365 35.1975 27.6501 37.3789 27.5484 39.6183C27.4948 40.799 27.5111 40.9555 27.7232 41.2902C28.4381 42.4183 30.0292 42.3708 30.6469 41.2027C30.8307 40.8552 30.9046 40.5241 30.9046 40.0476C30.9046 37.3833 32.5505 34.7187 35.0648 33.3127C36.2337 32.659 36.1637 32.9881 36.2297 27.8423C36.2929 22.916 36.2851 22.9727 37.0244 22.1306C37.389 21.7153 37.8198 21.4364 38.3805 21.2525C38.8324 21.1042 39.8863 21.2209 40.3825 21.474ZM36.1155 52.5323V54.5714H29.7718H23.428V52.5323V50.4933H29.7718H36.1155V52.5323Z" fill="#0A2540"/>
</svg>
