<svg width="122" height="20" viewBox="0 0 122 20" fill="none" xmlns="http://www.w3.org/2000/svg">
<path d="M4.95312 19V13.8203L6.51465 11.8398L11.1865 19H16.6582L9.9043 8.81836L16.29 0.680664H11.2881L5.05469 8.72949H4.95312V0.680664H0.293945V19H4.95312ZM29.175 0.363281C23.6271 0.363281 20.1232 4.00684 20.1232 9.84668C20.1232 15.6865 23.6145 19.3174 29.175 19.3174C34.7229 19.3174 38.2141 15.6865 38.2141 9.84668C38.2141 4.00684 34.7229 0.363281 29.175 0.363281ZM29.175 4.14648C31.7775 4.14648 33.4787 6.35547 33.4787 9.84668C33.4787 13.3252 31.7775 15.5342 29.175 15.5342C26.5598 15.5342 24.8713 13.3252 24.8713 9.84668C24.8713 6.35547 26.5725 4.14648 29.175 4.14648ZM52.5336 19C56.4564 19 58.932 16.9307 58.932 13.7188C58.932 11.2812 56.977 9.44043 54.5014 9.32617V9.22461C56.5326 8.94531 58.0814 7.30762 58.0814 5.25098C58.0814 2.41992 55.9105 0.680664 52.3051 0.680664H43.7865V19H52.5336ZM48.4457 3.98145H51.0736C52.6352 3.98145 53.5492 4.74316 53.5492 6.02539C53.5492 7.3457 52.5336 8.14551 50.8451 8.14551H48.4457V3.98145ZM48.4457 15.6992V10.9766H51.1879C53.1049 10.9766 54.1967 11.8145 54.1967 13.3125C54.1967 14.8613 53.1303 15.6992 51.2133 15.6992H48.4457ZM63.8824 19H78.3424V15.2422H69.3922V15.1533L78.0631 3.63867V0.680664H64.0221V4.43848H72.5914V4.52734L63.8824 16.042V19ZM96.1531 19H101.104L94.9471 0.680664H89.2469L83.0896 19H87.8377L89.0057 14.9756H94.9978L96.1531 19ZM91.951 4.56543H92.0525L94.0838 11.624H89.907L91.951 4.56543ZM110.828 12.5889H113.202L116.351 19H121.581L117.912 11.9033C119.918 11.0273 121.048 8.9707 121.048 6.72363C121.048 2.94043 118.585 0.680664 114.015 0.680664H106.169V19H110.828V12.5889ZM110.828 4.19727H113.545C115.208 4.19727 116.287 5.25098 116.287 6.8125C116.287 8.39941 115.271 9.40234 113.558 9.40234H110.828V4.19727Z" fill="#0A2540"/>
</svg>
