<svg width="24" height="24" viewBox="0 0 24 24" fill="none" xmlns="http://www.w3.org/2000/svg">
<path d="M12 20C14.1217 20 16.1566 19.1571 17.6569 17.6569C19.1571 16.1566 20 14.1217 20 12C20 9.87827 19.1571 7.84344 17.6569 6.34315C16.1566 4.84285 14.1217 4 12 4C9.87827 4 7.84344 4.84285 6.34315 6.34315C4.84285 7.84344 4 9.87827 4 12C4 14.1217 4.84285 16.1566 6.34315 17.6569C7.84344 19.1571 9.87827 20 12 20V20ZM12 22C6.477 22 2 17.523 2 12C2 6.477 6.477 2 12 2C17.523 2 22 6.477 22 12C22 17.523 17.523 22 12 22Z" fill="#0A2540"/>
<path d="M13.414 11.9999L16.243 14.8279C16.4307 15.0156 16.5361 15.2701 16.5361 15.5354C16.5361 15.8008 16.4307 16.0553 16.243 16.2429C16.0554 16.4306 15.8009 16.536 15.5355 16.536C15.2702 16.536 15.0157 16.4306 14.828 16.2429L12 13.4139L9.17205 16.2429C8.9844 16.4306 8.72991 16.536 8.46455 16.536C8.19918 16.536 7.94469 16.4306 7.75705 16.2429C7.5694 16.0553 7.46399 15.8008 7.46399 15.5354C7.46399 15.2701 7.5694 15.0156 7.75705 14.8279L10.586 11.9999L7.75705 9.17192C7.5694 8.98428 7.46399 8.72979 7.46399 8.46442C7.46399 8.19906 7.5694 7.94456 7.75705 7.75692C7.94469 7.56928 8.19918 7.46387 8.46455 7.46387C8.72991 7.46387 8.9844 7.56928 9.17205 7.75692L12 10.5859L14.828 7.75692C15.0157 7.56928 15.2702 7.46387 15.5355 7.46387C15.8009 7.46387 16.0554 7.56928 16.243 7.75692C16.4307 7.94456 16.5361 8.19906 16.5361 8.46442C16.5361 8.72979 16.4307 8.98428 16.243 9.17192L13.414 11.9999Z" fill="#0A2540"/>
</svg>
