<svg width="25" height="24" viewBox="0 0 25 24" fill="none" xmlns="http://www.w3.org/2000/svg">
<path d="M17.5 1.01L7.5 1C6.4 1 5.5 1.9 5.5 3V21C5.5 22.1 6.4 23 7.5 23H17.5C18.6 23 19.5 22.1 19.5 21V3C19.5 1.9 18.6 1.01 17.5 1.01ZM17.5 19H7.5V5H17.5V19Z" fill="white"/>
</svg>
